im/conversations/compliance/utils/JsonReader.class
im/conversations/compliance/xmpp/ServerMetadataChecker.class
META-INF/services/org.sql2o.converters.ConvertersProvider
im/conversations/compliance/utils/Utils.class
im/conversations/compliance/web/WebUtils.class
im/conversations/compliance/utils/ExceptionUtils.class
im/conversations/compliance/pojo/Subscriber.class
im/conversations/compliance/xmpp/OneOffTestRunner$ResultListener.class
im/conversations/compliance/pojo/Iteration.class
im/conversations/compliance/email/MailVerification.class
im/conversations/compliance/pojo/Credential.class
im/conversations/compliance/pojo/ResultDomainPair.class
im/conversations/compliance/xmpp/PeriodicTestRunner.class
im/conversations/compliance/pojo/HistoricalSnapshot.class
im/conversations/compliance/xmpp/OneOffTestRunner.class
im/conversations/compliance/web/Controller$1.class
im/conversations/compliance/pojo/HistoricalSnapshot$Change.class
im/conversations/compliance/web/Controller.class
im/conversations/compliance/email/MailVerification$VerificationRequest.class
im/conversations/compliance/sql2o/JidConverter.class
im/conversations/compliance/web/Api.class
im/conversations/compliance/pojo/Help.class
im/conversations/compliance/persistence/DBConnections.class
im/conversations/compliance/utils/TimeUtils.class
im/conversations/compliance/web/TestLiveWebsocket.class
im/conversations/compliance/persistence/DBOperations.class
im/conversations/compliance/persistence/InternalDBOperations.class
im/conversations/compliance/pojo/Configuration$DbCredentials.class
im/conversations/compliance/pojo/Server.class
im/conversations/compliance/email/MailSender.class
im/conversations/compliance/pojo/Configuration.class
im/conversations/compliance/sql2o/Sql2oConverterProviders.class
im/conversations/compliance/email/MailBuilder.class
im/conversations/compliance/pojo/MailConfig.class
im/conversations/compliance/WebLauncher.class
im/conversations/compliance/sql2o/InstantConverter.class
im/conversations/compliance/web/WebUtils$1.class
im/conversations/compliance/pojo/Result.class
im/conversations/compliance/pojo/ServerResponse.class
